{
    "/js/form.js": "/js/form.js?id=4fb94a2a688a2cb32900",
    "/js/appointments.js": "/js/appointments.js?id=60c6c19f8ff061a8b510",
    "/js/app.js": "/js/app.js?id=f5a25d98c921154600d6",
    "/css/app.css": "/css/app.css?id=ae91bda39c903b9c6c5b"
}
